[{"line":1,"elements":[{"line":6,"name":"","description":"","type":"background","keyword":"Background","steps":[{"name":"url url","result":{"duration":72400,"status":"passed"},"match":{"location":"karate","arguments":[]},"keyword":"*","line":7}]},{"line":9,"name":"check method POST","description":"","id":"check-method-post","type":"scenario","keyword":"Scenario","steps":[{"name":"def requestCreate = {\"email\": \"#(email)\", \"password\": \"#(password)\"}","result":{"duration":7184200,"status":"passed"},"match":{"location":"karate","arguments":[]},"keyword":"*","line":10},{"name":"def responsePost = {\"token\": 'QpwL5tke4Pnpja7X4'}","result":{"duration":173400,"status":"passed"},"match":{"location":"karate","arguments":[]},"keyword":"*","line":11},{"name":"path 'login'","result":{"duration":1542900,"status":"passed"},"match":{"location":"karate","arguments":[]},"keyword":"Given","line":13},{"name":"request requestCreate","result":{"duration":20800,"status":"passed"},"match":{"location":"karate","arguments":[]},"keyword":"And","line":14},{"name":"method get","result":{"duration":907338800,"status":"passed"},"match":{"location":"karate","arguments":[]},"keyword":"When","line":15,"doc_string":{"content_type":"","value":"23:20:14.527 request:\n1 > GET https:\/\/reqres.in\/api\/login\n1 > Accept-Encoding: gzip,deflate\n1 > Connection: Keep-Alive\n1 > Host: reqres.in\n1 > User-Agent: Apache-HttpClient\/4.5.12 (Java\/1.8.0_342)\n\n23:20:15.087 response time in milliseconds: 561,11\n1 < 200\n1 < Access-Control-Allow-Origin: *\n1 < Age: 1105\n1 < CF-Cache-Status: HIT\n1 < CF-RAY: 7409c61c6c68099e-MIA\n1 < Cache-Control: max-age=14400\n1 < Connection: keep-alive\n1 < Content-Type: application\/json; charset=utf-8\n1 < Date: Fri, 26 Aug 2022 04:20:15 GMT\n1 < Etag: W\/\"2c1-N6Rqerxquq2kgQhL51EiSg4x0R8\"\n1 < Expect-CT: max-age=604800, report-uri=\"https:\/\/report-uri.cloudflare.com\/cdn-cgi\/beacon\/expect-ct\"\n1 < NEL: {\"success_fraction\":0,\"report_to\":\"cf-nel\",\"max_age\":604800}\n1 < Report-To: {\"endpoints\":[{\"url\":\"https:\\\/\\\/a.nel.cloudflare.com\\\/report\\\/v3?s=Mb4iDdWZTYPlESE5iC84uYj1lqpfSa%2B%2Bx%2Bztw%2FVQEU777wQ9biz4lQbuuSqGDdw7MEwUmQHT8KTho9EqloygmyoeIvGgcbaqnD9apW8%2Fy%2BbFmN9nzYt3DSLDfg%3D%3D\"}],\"group\":\"cf-nel\",\"max_age\":604800}\n1 < Server: cloudflare\n1 < Transfer-Encoding: chunked\n1 < Vary: Accept-Encoding\n1 < Via: 1.1 vegur\n1 < X-Powered-By: Express\n{\"page\":1,\"per_page\":6,\"total\":12,\"total_pages\":2,\"data\":[{\"id\":1,\"name\":\"cerulean\",\"year\":2000,\"color\":\"#98B2D1\",\"pantone_value\":\"15-4020\"},{\"id\":2,\"name\":\"fuchsia rose\",\"year\":2001,\"color\":\"#C74375\",\"pantone_value\":\"17-2031\"},{\"id\":3,\"name\":\"true red\",\"year\":2002,\"color\":\"#BF1932\",\"pantone_value\":\"19-1664\"},{\"id\":4,\"name\":\"aqua sky\",\"year\":2003,\"color\":\"#7BC4C4\",\"pantone_value\":\"14-4811\"},{\"id\":5,\"name\":\"tigerlily\",\"year\":2004,\"color\":\"#E2583E\",\"pantone_value\":\"17-1456\"},{\"id\":6,\"name\":\"blue turquoise\",\"year\":2005,\"color\":\"#53B0AE\",\"pantone_value\":\"15-5217\"}],\"support\":{\"url\":\"https:\/\/reqres.in\/#support-heading\",\"text\":\"To keep ReqRes free, contributions towards server costs are appreciated!\"}}","line":15}},{"name":"status 200","result":{"duration":13500,"status":"passed"},"match":{"location":"karate","arguments":[]},"keyword":"Then","line":16}]},{"line":6,"name":"","description":"","type":"background","keyword":"Background","steps":[{"name":"url url","result":{"duration":15100,"status":"passed"},"match":{"location":"karate","arguments":[]},"keyword":"*","line":7}]},{"line":19,"name":"check method POST","description":"","id":"check-method-post","type":"scenario","keyword":"Scenario","steps":[{"name":"def requestCreate = {\"email\": \"#(email)\", \"password\": \"#(password)\"}","result":{"duration":1168900,"status":"passed"},"match":{"location":"karate","arguments":[]},"keyword":"*","line":20},{"name":"def responsePost = {\"token\": 'user not found'}","result":{"duration":116100,"status":"passed"},"match":{"location":"karate","arguments":[]},"keyword":"*","line":21},{"name":"path 'login'","result":{"duration":113200,"status":"passed"},"match":{"location":"karate","arguments":[]},"keyword":"Given","line":23},{"name":"request requestCreate","result":{"duration":5200,"status":"passed"},"match":{"location":"karate","arguments":[]},"keyword":"And","line":24},{"name":"method post","result":{"duration":578620400,"status":"passed"},"match":{"location":"karate","arguments":[]},"keyword":"When","line":25,"doc_string":{"content_type":"","value":"23:20:15.107 request:\n1 > POST https:\/\/reqres.in\/api\/login\n1 > Accept-Encoding: gzip,deflate\n1 > Connection: Keep-Alive\n1 > Content-Length: 45\n1 > Content-Type: application\/json; charset=UTF-8\n1 > Host: reqres.in\n1 > User-Agent: Apache-HttpClient\/4.5.12 (Java\/1.8.0_342)\n{\"email\":\"#(email)\",\"password\":\"#(password)\"}\n\n23:20:15.677 response time in milliseconds: 572,86\n1 < 400\n1 < Access-Control-Allow-Origin: *\n1 < CF-Cache-Status: DYNAMIC\n1 < CF-RAY: 7409c61eacebb3c5-MIA\n1 < Connection: keep-alive\n1 < Content-Length: 26\n1 < Content-Type: application\/json; charset=utf-8\n1 < Date: Fri, 26 Aug 2022 04:20:16 GMT\n1 < Etag: W\/\"1a-EGIcyP6BIiCXl5Gb1aph5CGf4VQ\"\n1 < Expect-CT: max-age=604800, report-uri=\"https:\/\/report-uri.cloudflare.com\/cdn-cgi\/beacon\/expect-ct\"\n1 < NEL: {\"success_fraction\":0,\"report_to\":\"cf-nel\",\"max_age\":604800}\n1 < Report-To: {\"endpoints\":[{\"url\":\"https:\\\/\\\/a.nel.cloudflare.com\\\/report\\\/v3?s=RFnQHPA0aKppNu9U1AVQ6EJX%2FEvWRJkj4HKPcCP3nC02OIwXiAy4LhfA2%2BdOwBgvpmK3lxiaL7b3DZg7%2FkAqGcmuhfWAbDkcxgdoFp3J7fJT65uIdOd4YPoltw%3D%3D\"}],\"group\":\"cf-nel\",\"max_age\":604800}\n1 < Server: cloudflare\n1 < Via: 1.1 vegur\n1 < X-Powered-By: Express\n{\"error\":\"user not found\"}","line":25}},{"name":"status 400","result":{"duration":7700,"status":"passed"},"match":{"location":"karate","arguments":[]},"keyword":"Then","line":26}]},{"line":6,"name":"","description":"","type":"background","keyword":"Background","steps":[{"name":"url url","result":{"duration":17300,"status":"passed"},"match":{"location":"karate","arguments":[]},"keyword":"*","line":7}]},{"line":40,"name":"check method POST","description":"","id":"check-method-post","type":"scenario","keyword":"Scenario Outline","steps":[{"name":"def requestCreate = {\"email\": \"#(email)\", \"password\": \"#(password)\"}","result":{"duration":1997900,"status":"passed"},"match":{"location":"karate","arguments":[]},"keyword":"*","line":29},{"name":"def responsePost = {\"token\": 'user not found'}","result":{"duration":83300,"status":"passed"},"match":{"location":"karate","arguments":[]},"keyword":"*","line":30},{"name":"path 'login'","result":{"duration":153700,"status":"passed"},"match":{"location":"karate","arguments":[]},"keyword":"Given","line":32},{"name":"request requestCreate","result":{"duration":5200,"status":"passed"},"match":{"location":"karate","arguments":[]},"keyword":"And","line":33},{"name":"params {\"email\": \"\", \"password\": \"\"}","result":{"duration":226700,"status":"passed"},"match":{"location":"karate","arguments":[]},"keyword":"And","line":34},{"name":"method post","result":{"duration":516443900,"status":"passed"},"match":{"location":"karate","arguments":[]},"keyword":"When","line":35,"doc_string":{"content_type":"","value":"23:20:15.692 request:\n1 > POST https:\/\/reqres.in\/api\/login?email=&password=\n1 > Accept-Encoding: gzip,deflate\n1 > Connection: Keep-Alive\n1 > Content-Length: 34\n1 > Content-Type: application\/json; charset=UTF-8\n1 > Host: reqres.in\n1 > User-Agent: Apache-HttpClient\/4.5.12 (Java\/1.8.0_342)\n{\"email\":\"\\\"\\\"\",\"password\":\"\\\"\\\"\"}\n\n23:20:16.206 response time in milliseconds: 514,39\n1 < 400\n1 < Access-Control-Allow-Origin: *\n1 < CF-Cache-Status: DYNAMIC\n1 < CF-RAY: 7409c621d94ab3bb-MIA\n1 < Connection: keep-alive\n1 < Content-Length: 26\n1 < Content-Type: application\/json; charset=utf-8\n1 < Date: Fri, 26 Aug 2022 04:20:16 GMT\n1 < Etag: W\/\"1a-EGIcyP6BIiCXl5Gb1aph5CGf4VQ\"\n1 < Expect-CT: max-age=604800, report-uri=\"https:\/\/report-uri.cloudflare.com\/cdn-cgi\/beacon\/expect-ct\"\n1 < NEL: {\"success_fraction\":0,\"report_to\":\"cf-nel\",\"max_age\":604800}\n1 < Report-To: {\"endpoints\":[{\"url\":\"https:\\\/\\\/a.nel.cloudflare.com\\\/report\\\/v3?s=cnI7OT9P%2FrCO5oCjuyqAzRnWb6u3RmrXIN1RPNF2wA5R0Q6FL%2BywErIAa0b7O%2FkK9kWPzmgXA2TMM6NKD%2F%2B8mzjPrddgp3Xv2zbUxbGfrJnlb1DikwH6RHdOWA%3D%3D\"}],\"group\":\"cf-nel\",\"max_age\":604800}\n1 < Server: cloudflare\n1 < Via: 1.1 vegur\n1 < X-Powered-By: Express\n{\"error\":\"user not found\"}","line":35}},{"name":"status 400","result":{"duration":10000,"status":"passed"},"match":{"location":"karate","arguments":[]},"keyword":"Then","line":36}]},{"line":6,"name":"","description":"","type":"background","keyword":"Background","steps":[{"name":"url url","result":{"duration":13000,"status":"passed"},"match":{"location":"karate","arguments":[]},"keyword":"*","line":7}]},{"line":41,"name":"check method POST","description":"","id":"check-method-post","type":"scenario","keyword":"Scenario Outline","steps":[{"name":"def requestCreate = {\"email\": \"#(email)\", \"password\": \"#(password)\"}","result":{"duration":1239000,"status":"passed"},"match":{"location":"karate","arguments":[]},"keyword":"*","line":29},{"name":"def responsePost = {\"token\": 'user not found'}","result":{"duration":87400,"status":"passed"},"match":{"location":"karate","arguments":[]},"keyword":"*","line":30},{"name":"path 'login'","result":{"duration":123400,"status":"passed"},"match":{"location":"karate","arguments":[]},"keyword":"Given","line":32},{"name":"request requestCreate","result":{"duration":5100,"status":"passed"},"match":{"location":"karate","arguments":[]},"keyword":"And","line":33},{"name":"params {\"email\": 1234, \"password\": -+#}","result":{"duration":121200,"status":"passed"},"match":{"location":"karate","arguments":[]},"keyword":"And","line":34},{"name":"method post","result":{"duration":497953900,"status":"passed"},"match":{"location":"karate","arguments":[]},"keyword":"When","line":35,"doc_string":{"content_type":"","value":"23:20:16.216 request:\n1 > POST https:\/\/reqres.in\/api\/login?email=1234&password=-%2B%23\n1 > Accept-Encoding: gzip,deflate\n1 > Connection: Keep-Alive\n1 > Content-Length: 33\n1 > Content-Type: application\/json; charset=UTF-8\n1 > Host: reqres.in\n1 > User-Agent: Apache-HttpClient\/4.5.12 (Java\/1.8.0_342)\n{\"email\":\"1234\",\"password\":\"-+#\"}\n\n23:20:16.706 response time in milliseconds: 496,04\n1 < 400\n1 < Access-Control-Allow-Origin: *\n1 < CF-Cache-Status: DYNAMIC\n1 < CF-RAY: 7409c6250ae6b3cd-MIA\n1 < Connection: keep-alive\n1 < Content-Length: 26\n1 < Content-Type: application\/json; charset=utf-8\n1 < Date: Fri, 26 Aug 2022 04:20:17 GMT\n1 < Etag: W\/\"1a-EGIcyP6BIiCXl5Gb1aph5CGf4VQ\"\n1 < Expect-CT: max-age=604800, report-uri=\"https:\/\/report-uri.cloudflare.com\/cdn-cgi\/beacon\/expect-ct\"\n1 < NEL: {\"success_fraction\":0,\"report_to\":\"cf-nel\",\"max_age\":604800}\n1 < Report-To: {\"endpoints\":[{\"url\":\"https:\\\/\\\/a.nel.cloudflare.com\\\/report\\\/v3?s=QrxN2o%2Bcn4gj%2BRzfdlFq6OtrydpdZRKfL%2FFUJxbAMA0k4vDPFOwiSzw%2FcFYCSozSP8KbOkdC3PyEnC%2BD3Tpfgq9p0WN5DtDoOF1FiMgkz8jzPFxqerNgB5Pkew%3D%3D\"}],\"group\":\"cf-nel\",\"max_age\":604800}\n1 < Server: cloudflare\n1 < Via: 1.1 vegur\n1 < X-Powered-By: Express\n{\"error\":\"user not found\"}","line":35}},{"name":"status 400","result":{"duration":7900,"status":"passed"},"match":{"location":"karate","arguments":[]},"keyword":"Then","line":36}]},{"line":6,"name":"","description":"","type":"background","keyword":"Background","steps":[{"name":"url url","result":{"duration":12600,"status":"passed"},"match":{"location":"karate","arguments":[]},"keyword":"*","line":7}]},{"line":42,"name":"check method POST","description":"","id":"check-method-post","type":"scenario","keyword":"Scenario Outline","steps":[{"name":"def requestCreate = {\"email\": \"#(email)\", \"password\": \"#(password)\"}","result":{"duration":940200,"status":"passed"},"match":{"location":"karate","arguments":[]},"keyword":"*","line":29},{"name":"def responsePost = {\"token\": 'user not found'}","result":{"duration":70900,"status":"passed"},"match":{"location":"karate","arguments":[]},"keyword":"*","line":30},{"name":"path 'login'","result":{"duration":118600,"status":"passed"},"match":{"location":"karate","arguments":[]},"keyword":"Given","line":32},{"name":"request requestCreate","result":{"duration":4700,"status":"passed"},"match":{"location":"karate","arguments":[]},"keyword":"And","line":33},{"name":"params {\"email\": 1234dssdj@, \"password\": @123}","result":{"duration":102700,"status":"passed"},"match":{"location":"karate","arguments":[]},"keyword":"And","line":34},{"name":"method post","result":{"duration":616766600,"status":"passed"},"match":{"location":"karate","arguments":[]},"keyword":"When","line":35,"doc_string":{"content_type":"","value":"23:20:16.717 request:\n1 > POST https:\/\/reqres.in\/api\/login?email=1234dssdj%40&password=%40123\n1 > Accept-Encoding: gzip,deflate\n1 > Connection: Keep-Alive\n1 > Content-Length: 40\n1 > Content-Type: application\/json; charset=UTF-8\n1 > Host: reqres.in\n1 > User-Agent: Apache-HttpClient\/4.5.12 (Java\/1.8.0_342)\n{\"email\":\"1234dssdj@\",\"password\":\"@123\"}\n\n23:20:17.337 response time in milliseconds: 614,80\n1 < 400\n1 < Access-Control-Allow-Origin: *\n1 < CF-Cache-Status: DYNAMIC\n1 < CF-RAY: 7409c628ff7b6dad-MIA\n1 < Connection: keep-alive\n1 < Content-Length: 26\n1 < Content-Type: application\/json; charset=utf-8\n1 < Date: Fri, 26 Aug 2022 04:20:17 GMT\n1 < Etag: W\/\"1a-EGIcyP6BIiCXl5Gb1aph5CGf4VQ\"\n1 < Expect-CT: max-age=604800, report-uri=\"https:\/\/report-uri.cloudflare.com\/cdn-cgi\/beacon\/expect-ct\"\n1 < NEL: {\"success_fraction\":0,\"report_to\":\"cf-nel\",\"max_age\":604800}\n1 < Report-To: {\"endpoints\":[{\"url\":\"https:\\\/\\\/a.nel.cloudflare.com\\\/report\\\/v3?s=Oo0VCMly3pL2fT%2B3F6RIl%2FVJPX03KM2tZrbsKrZSNAZ1pmDN79rqJTCPWwGWpyCzKcK9vb5Z2K5cJNEQPRlC2DhkVYrEgFTrfUFCaAyIkvmigwgvb0%2FoYtv12A%3D%3D\"}],\"group\":\"cf-nel\",\"max_age\":604800}\n1 < Server: cloudflare\n1 < Via: 1.1 vegur\n1 < X-Powered-By: Express\n{\"error\":\"user not found\"}","line":35}},{"name":"status 400","result":{"duration":11200,"status":"passed"},"match":{"location":"karate","arguments":[]},"keyword":"Then","line":36}]}],"name":"src\/test\/resources\/karate\/login\/login.feature","description":"Service client POST\nAS QA Automation\r\n  I want to login successful\r\n  To validate the status code and response","id":"service-client-post","keyword":"Feature","uri":"src\/test\/resources\/karate\/login\/login.feature"}]